{
  "BindAddress": ":53",
  "Forwarders": [
    {
      "Name": "Paychex",
      "Address": "10.0.2.3:53",
      "Protocol": "udp",
      "Timeout": 6
    },
    {
      "Name": "Internet",
      "Address": "127.0.0.1:5053",
      "Protocol": "tcp",
      "Timeout": 6
    }
  ],
  "CacheSize" : 0
}
